-------------------------------------------------------------------------------
Test set: domain.BicicletaTest
-------------------------------------------------------------------------------
Tests run: 12, Failures: 0, Errors: 0, Skipped: 0, Time elapsed: 0.013 s - in domain.BicicletaTest
