controller\BicicletaControllerTest.class
service\JDBCMockBicicletaTest.class
domain\BicicletaTest.class
controller\TotemControllerTest.class
controller\TrancaControllerTest.class
util\ValidatorTest.class
domain\TrancaTest.class
service\JDBCMockTotemTest.class
domain\TotemTest.class
service\JDBCMockTrancaTest.class
util\ErrorResponseTest.class
